,Time_start,Time_end,Label
0,300.0,350.0,pose KTA
1,,,
2,2250.0,3800.0,hypovolémie/excès de sédation
3,5000.0,5100.0,nociception
4,7300.0,7400.0,nociception
5,8300.0,8400.0,nociception
6,,,
7,4800.0,5100.0,nociception
8,6500.0,6600.0,nociception
9,1200.0,1400.0,exclusion pulmonaire
