,Time_start,Time_end,Label
0,300,350,pose KTA
1,350,500,Incision
2,2250,3800,hypovolémie/excès de sédation
3,5000,5200,nociception
4,7300,7400,nociception
5,8300,8400,nociception
6,8500,11000,hypovolémie ?
