,Time_start,Time_end,Label
0,1380,1660,induction_ventilation
1,1660,1820,induction_intubation
2,2340,2410,deconnexion_respi
3,4050,4150,error_BIS
4,4250,4320,error_BIS
5,4360,4430,error_BIS
6,4195,4205,flush_art
7,4810,4870,?sampling
8,7200,7550,error_BIS
9,7750,7850,pain_excess
10,8360,8425,recruitment
11,8250,8320,flush_art
12,8650,8700,vent_leak
13,8850,9200,pain_excess
14,11750,12200,stop_GA
15,12220,12250,extubation
16,12200,12210,art_disconnect
17,12250,12300,end_procedure
