,Time_start,Time_end,Label
0,640,720,pose_ABP
1,120,380,induction_ventilation
2,380,600,induction_intubation
3,1000,1200,defaut_sedation
4,1720,1760,sampling
5,2320,2360,aspi_trach_or_recruitment
6,2500,2600,sampling
7,4000,4300,defaut_analgesie
8,3250,4000,tble_compliance
9,5000,5350,hypovolemia
10,6450,6900,defaut_analgesie
11,7500,7700,exsufflation_coelio
